{
  "project_info": {
    "project_number": "1013407958448",
    "firebase_url": "https://gossip-6d205.firebaseio.com",
    "project_id": "gossip-6d205",
    "storage_bucket": "gossip-6d205.appspot.com"
  },
  "client": [
    {
      "client_info": {
        "mobilesdk_app_id": "1:1013407958448:android:7f224bf7d7f890ae068275",
        "android_client_info": {
          "package_name": "com.vinod.gossip"
        }
      },
      "oauth_client": [
        {
          "client_id": "1013407958448-e8ag6a9gusgh2lvtnt89iu4v8cb8rin1.apps.googleusercontent.com",
          "client_type": 1,
          "android_info": {
            "package_name": "com.vinod.gossip",
            "certificate_hash": "094c90ac71efaa08b3d3976d596fca735046945d"
          }
        },
        {
          "client_id": "1013407958448-jphk8nmuun3vmav7b0t46k84e7nh19ut.apps.googleusercontent.com",
          "client_type": 1,
          "android_info": {
            "package_name": "com.vinod.gossip",
            "certificate_hash": "aa0d2a2c01567c943c6a00d91f2a58ba03acb735"
          }
        },
        {
          "client_id": "1013407958448-4cjji8rtje7bvmcn3f0ik5a80rde5jcd.apps.googleusercontent.com",
          "client_type": 3
        }
      ],
      "api_key": [
        {
          "current_key": "AIzaSyC5PA8dvoEmyIRQkHjWZjk3IrcLWt0ynKw"
        }
      ],
      "services": {
        "appinvite_service": {
          "other_platform_oauth_client": [
            {
              "client_id": "1013407958448-4cjji8rtje7bvmcn3f0ik5a80rde5jcd.apps.googleusercontent.com",
              "client_type": 3
            }
          ]
        }
      }
    }
  ],
  "configuration_version": "1"
}